Name,Employee Id,Phone,Age,Gender,Job title,Salary,Hire Date
Jimmy Fallon,12345,9495551234,40,M,Comedian,100000,8/31/2014
Stephan Colbert,12346,3105555555,51,M,Comedian,70123,5/8/2015
James Corden,87654,7037031234,37,M,Talk Show Host,900000,12/25/2014
Katie Couric,77777,2035556789,58,F,News reporter,500500,3/1/2005
