*****************************************************
*  PROGRAMMED BY  : Ethan Slattery
*  CLASS          : CS1C
*  SECTION        : MW: 1930 - 2050
*  ASSIGNMENT #2  : Playing Card Shuffle
*****************************************************


**********************************************
*          THE CARD SHUFFLING GAME!          *
*         "the house always wins..."         *
**********************************************
A new deck, fresh from the factory:
┌-----┐┌-----┐┌-----┐┌-----┐┌-----┐┌-----┐┌-----┐┌-----┐┌-----┐┌-----┐┌-----┐┌-----┐┌-----┐
│A♠   ││2♠   ││3♠   ││4♠   ││5♠   ││6♠   ││7♠   ││8♠   ││9♠   ││10♠  ││J♠   ││Q♠   ││K♠   │
│     ││     ││     ││     ││     ││     ││     ││     ││     ││     ││     ││     ││     │
│   A♠││   2♠││   3♠││   4♠││   5♠││   6♠││   7♠││   8♠││   9♠││  10♠││   J♠││   Q♠││   K♠│
└-----┘└-----┘└-----┘└-----┘└-----┘└-----┘└-----┘└-----┘└-----┘└-----┘└-----┘└-----┘└-----┘
┌-----┐┌-----┐┌-----┐┌-----┐┌-----┐┌-----┐┌-----┐┌-----┐┌-----┐┌-----┐┌-----┐┌-----┐┌-----┐
│A♦   ││2♦   ││3♦   ││4♦   ││5♦   ││6♦   ││7♦   ││8♦   ││9♦   ││10♦  ││J♦   ││Q♦   ││K♦   │
│     ││     ││     ││     ││     ││     ││     ││     ││     ││     ││     ││     ││     │
│   A♦││   2♦││   3♦││   4♦││   5♦││   6♦││   7♦││   8♦││   9♦││  10♦││   J♦││   Q♦││   K♦│
└-----┘└-----┘└-----┘└-----┘└-----┘└-----┘└-----┘└-----┘└-----┘└-----┘└-----┘└-----┘└-----┘
┌-----┐┌-----┐┌-----┐┌-----┐┌-----┐┌-----┐┌-----┐┌-----┐┌-----┐┌-----┐┌-----┐┌-----┐┌-----┐
│A♣   ││2♣   ││3♣   ││4♣   ││5♣   ││6♣   ││7♣   ││8♣   ││9♣   ││10♣  ││J♣   ││Q♣   ││K♣   │
│     ││     ││     ││     ││     ││     ││     ││     ││     ││     ││     ││     ││     │
│   A♣││   2♣││   3♣││   4♣││   5♣││   6♣││   7♣││   8♣││   9♣││  10♣││   J♣││   Q♣││   K♣│
└-----┘└-----┘└-----┘└-----┘└-----┘└-----┘└-----┘└-----┘└-----┘└-----┘└-----┘└-----┘└-----┘
┌-----┐┌-----┐┌-----┐┌-----┐┌-----┐┌-----┐┌-----┐┌-----┐┌-----┐┌-----┐┌-----┐┌-----┐┌-----┐
│A♥   ││2♥   ││3♥   ││4♥   ││5♥   ││6♥   ││7♥   ││8♥   ││9♥   ││10♥  ││J♥   ││Q♥   ││K♥   │
│     ││     ││     ││     ││     ││     ││     ││     ││     ││     ││     ││     ││     │
│   A♥││   2♥││   3♥││   4♥││   5♥││   6♥││   7♥││   8♥││   9♥││  10♥││   J♥││   Q♥││   K♥│
└-----┘└-----┘└-----┘└-----┘└-----┘└-----┘└-----┘└-----┘└-----┘└-----┘└-----┘└-----┘└-----┘

Shuffling the deck for the 1st time...

┌-----┐┌-----┐┌-----┐┌-----┐┌-----┐┌-----┐┌-----┐┌-----┐┌-----┐┌-----┐┌-----┐┌-----┐┌-----┐
│A♠   ││A♣   ││2♠   ││2♣   ││3♠   ││3♣   ││4♠   ││4♣   ││5♠   ││5♣   ││6♠   ││6♣   ││7♠   │
│     ││     ││     ││     ││     ││     ││     ││     ││     ││     ││     ││     ││     │
│   A♠││   A♣││   2♠││   2♣││   3♠││   3♣││   4♠││   4♣││   5♠││   5♣││   6♠││   6♣││   7♠│
└-----┘└-----┘└-----┘└-----┘└-----┘└-----┘└-----┘└-----┘└-----┘└-----┘└-----┘└-----┘└-----┘
┌-----┐┌-----┐┌-----┐┌-----┐┌-----┐┌-----┐┌-----┐┌-----┐┌-----┐┌-----┐┌-----┐┌-----┐┌-----┐
│7♣   ││8♠   ││8♣   ││9♠   ││9♣   ││10♠  ││10♣  ││J♠   ││J♣   ││Q♠   ││Q♣   ││K♠   ││K♣   │
│     ││     ││     ││     ││     ││     ││     ││     ││     ││     ││     ││     ││     │
│   7♣││   8♠││   8♣││   9♠││   9♣││  10♠││  10♣││   J♠││   J♣││   Q♠││   Q♣││   K♠││   K♣│
└-----┘└-----┘└-----┘└-----┘└-----┘└-----┘└-----┘└-----┘└-----┘└-----┘└-----┘└-----┘└-----┘
┌-----┐┌-----┐┌-----┐┌-----┐┌-----┐┌-----┐┌-----┐┌-----┐┌-----┐┌-----┐┌-----┐┌-----┐┌-----┐
│A♦   ││A♥   ││2♦   ││2♥   ││3♦   ││3♥   ││4♦   ││4♥   ││5♦   ││5♥   ││6♦   ││6♥   ││7♦   │
│     ││     ││     ││     ││     ││     ││     ││     ││     ││     ││     ││     ││     │
│   A♦││   A♥││   2♦││   2♥││   3♦││   3♥││   4♦││   4♥││   5♦││   5♥││   6♦││   6♥││   7♦│
└-----┘└-----┘└-----┘└-----┘└-----┘└-----┘└-----┘└-----┘└-----┘└-----┘└-----┘└-----┘└-----┘
┌-----┐┌-----┐┌-----┐┌-----┐┌-----┐┌-----┐┌-----┐┌-----┐┌-----┐┌-----┐┌-----┐┌-----┐┌-----┐
│7♥   ││8♦   ││8♥   ││9♦   ││9♥   ││10♦  ││10♥  ││J♦   ││J♥   ││Q♦   ││Q♥   ││K♦   ││K♥   │
│     ││     ││     ││     ││     ││     ││     ││     ││     ││     ││     ││     ││     │
│   7♥││   8♦││   8♥││   9♦││   9♥││  10♦││  10♥││   J♦││   J♥││   Q♦││   Q♥││   K♦││   K♥│
└-----┘└-----┘└-----┘└-----┘└-----┘└-----┘└-----┘└-----┘└-----┘└-----┘└-----┘└-----┘└-----┘

Shuffling the deck for the 2nd time...

Shuffling the deck for the 3rd time...

Shuffling the deck for the 4th time...

Shuffling the deck for the 5th time...

Shuffling the deck for the 6th time...

Shuffling the deck for the 7th time...

Shuffling the deck for the 8th time...

┌-----┐┌-----┐┌-----┐┌-----┐┌-----┐┌-----┐┌-----┐┌-----┐┌-----┐┌-----┐┌-----┐┌-----┐┌-----┐
│A♠   ││2♠   ││3♠   ││4♠   ││5♠   ││6♠   ││7♠   ││8♠   ││9♠   ││10♠  ││J♠   ││Q♠   ││K♠   │
│     ││     ││     ││     ││     ││     ││     ││     ││     ││     ││     ││     ││     │
│   A♠││   2♠││   3♠││   4♠││   5♠││   6♠││   7♠││   8♠││   9♠││  10♠││   J♠││   Q♠││   K♠│
└-----┘└-----┘└-----┘└-----┘└-----┘└-----┘└-----┘└-----┘└-----┘└-----┘└-----┘└-----┘└-----┘
┌-----┐┌-----┐┌-----┐┌-----┐┌-----┐┌-----┐┌-----┐┌-----┐┌-----┐┌-----┐┌-----┐┌-----┐┌-----┐
│A♦   ││2♦   ││3♦   ││4♦   ││5♦   ││6♦   ││7♦   ││8♦   ││9♦   ││10♦  ││J♦   ││Q♦   ││K♦   │
│     ││     ││     ││     ││     ││     ││     ││     ││     ││     ││     ││     ││     │
│   A♦││   2♦││   3♦││   4♦││   5♦││   6♦││   7♦││   8♦││   9♦││  10♦││   J♦││   Q♦││   K♦│
└-----┘└-----┘└-----┘└-----┘└-----┘└-----┘└-----┘└-----┘└-----┘└-----┘└-----┘└-----┘└-----┘
┌-----┐┌-----┐┌-----┐┌-----┐┌-----┐┌-----┐┌-----┐┌-----┐┌-----┐┌-----┐┌-----┐┌-----┐┌-----┐
│A♣   ││2♣   ││3♣   ││4♣   ││5♣   ││6♣   ││7♣   ││8♣   ││9♣   ││10♣  ││J♣   ││Q♣   ││K♣   │
│     ││     ││     ││     ││     ││     ││     ││     ││     ││     ││     ││     ││     │
│   A♣││   2♣││   3♣││   4♣││   5♣││   6♣││   7♣││   8♣││   9♣││  10♣││   J♣││   Q♣││   K♣│
└-----┘└-----┘└-----┘└-----┘└-----┘└-----┘└-----┘└-----┘└-----┘└-----┘└-----┘└-----┘└-----┘
┌-----┐┌-----┐┌-----┐┌-----┐┌-----┐┌-----┐┌-----┐┌-----┐┌-----┐┌-----┐┌-----┐┌-----┐┌-----┐
│A♥   ││2♥   ││3♥   ││4♥   ││5♥   ││6♥   ││7♥   ││8♥   ││9♥   ││10♥  ││J♥   ││Q♥   ││K♥   │
│     ││     ││     ││     ││     ││     ││     ││     ││     ││     ││     ││     ││     │
│   A♥││   2♥││   3♥││   4♥││   5♥││   6♥││   7♥││   8♥││   9♥││  10♥││   J♥││   Q♥││   K♥│
└-----┘└-----┘└-----┘└-----┘└-----┘└-----┘└-----┘└-----┘└-----┘└-----┘└-----┘└-----┘└-----┘

the deck is now back to the original state!

The deck was Shuffled a total of 8 times!