digraph "Employee::Print"
{
  edge [fontname="Helvetica",fontsize="10",labelfontname="Helvetica",labelfontsize="10"];
  node [fontname="Helvetica",fontsize="10",shape=record];
  rankdir="LR";
  Node1 [label="Employee::Print",height=0.2,width=0.4,color="black", fillcolor="grey75", style="filled", fontcolor="black"];
  Node1 -> Node2 [color="midnightblue",fontsize="10",style="solid",fontname="Helvetica"];
  Node2 [label="Date::DisplayDate",height=0.2,width=0.4,color="black", fillcolor="white", style="filled",URL="$class_date.html#aec64adfc88126b561b691b83edebc955"];
}
