digraph "Date::ValidateDay"
{
  edge [fontname="Helvetica",fontsize="10",labelfontname="Helvetica",labelfontsize="10"];
  node [fontname="Helvetica",fontsize="10",shape=record];
  rankdir="LR";
  Node1 [label="Date::ValidateDay",height=0.2,width=0.4,color="black", fillcolor="grey75", style="filled", fontcolor="black"];
  Node1 -> Node2 [color="midnightblue",fontsize="10",style="solid",fontname="Helvetica"];
  Node2 [label="Date::GetDaysInMonth",height=0.2,width=0.4,color="black", fillcolor="white", style="filled",URL="$class_date.html#a7a6bfd278c4af7e2b49a73ffe757b7c7"];
}
