digraph "Date::SetDate"
{
  edge [fontname="Helvetica",fontsize="10",labelfontname="Helvetica",labelfontsize="10"];
  node [fontname="Helvetica",fontsize="10",shape=record];
  rankdir="LR";
  Node1 [label="Date::SetDate",height=0.2,width=0.4,color="black", fillcolor="grey75", style="filled", fontcolor="black"];
  Node1 -> Node2 [color="midnightblue",fontsize="10",style="solid",fontname="Helvetica"];
  Node2 [label="Date::ValidateDate",height=0.2,width=0.4,color="black", fillcolor="white", style="filled",URL="$class_date.html#aff7d60f7c39c7384e08e4b73fc08d546"];
  Node2 -> Node3 [color="midnightblue",fontsize="10",style="solid",fontname="Helvetica"];
  Node3 [label="Date::ValidateYear",height=0.2,width=0.4,color="black", fillcolor="white", style="filled",URL="$class_date.html#a8c1f8e110ab56d12c69ab730509bf78e"];
  Node2 -> Node4 [color="midnightblue",fontsize="10",style="solid",fontname="Helvetica"];
  Node4 [label="Date::ValidateDay",height=0.2,width=0.4,color="black", fillcolor="white", style="filled",URL="$class_date.html#ad029c85a987e31da0c17a82c21cb2ba7"];
  Node4 -> Node5 [color="midnightblue",fontsize="10",style="solid",fontname="Helvetica"];
  Node5 [label="Date::GetDaysInMonth",height=0.2,width=0.4,color="black", fillcolor="white", style="filled",URL="$class_date.html#a7a6bfd278c4af7e2b49a73ffe757b7c7"];
  Node2 -> Node6 [color="midnightblue",fontsize="10",style="solid",fontname="Helvetica"];
  Node6 [label="Date::ValidateMonth",height=0.2,width=0.4,color="black", fillcolor="white", style="filled",URL="$class_date.html#acb77011fef7129b79cce621482c2a52f"];
}
