digraph "Date::IsThisThePast"
{
  edge [fontname="Helvetica",fontsize="10",labelfontname="Helvetica",labelfontsize="10"];
  node [fontname="Helvetica",fontsize="10",shape=record];
  rankdir="LR";
  Node1 [label="Date::IsThisThePast",height=0.2,width=0.4,color="black", fillcolor="grey75", style="filled", fontcolor="black"];
  Node1 -> Node2 [color="midnightblue",fontsize="10",style="solid",fontname="Helvetica"];
  Node2 [label="Date::GetDate",height=0.2,width=0.4,color="black", fillcolor="white", style="filled",URL="$class_date.html#af559828abe832d63aa18d30032a570b4"];
}
