digraph "main"
{
  edge [fontname="Helvetica",fontsize="10",labelfontname="Helvetica",labelfontsize="10"];
  node [fontname="Helvetica",fontsize="10",shape=record];
  rankdir="LR";
  Node1 [label="main",height=0.2,width=0.4,color="black", fillcolor="grey75", style="filled", fontcolor="black"];
  Node1 -> Node2 [color="midnightblue",fontsize="10",style="solid",fontname="Helvetica"];
  Node2 [label="PrintHeaderOstream",height=0.2,width=0.4,color="black", fillcolor="white", style="filled",URL="$header_8h.html#a7c9c34750782098336c19b79e297cbc4"];
}
