digraph "D:/Users/Ethan/Desktop/Working/2_Projects/!saddleback_CS/cs1c/ASS_3_EmployeeTracker/Date/Date.h"
{
  edge [fontname="Helvetica",fontsize="10",labelfontname="Helvetica",labelfontsize="10"];
  node [fontname="Helvetica",fontsize="10",shape=record];
  Node1 [label="D:/Users/Ethan/Desktop\l/Working/2_Projects/!saddleback\l_CS/cs1c/ASS_3_EmployeeTracker\l/Date/Date.h",height=0.2,width=0.4,color="black", fillcolor="grey75", style="filled", fontcolor="black"];
  Node1 -> Node2 [dir="back",color="midnightblue",fontsize="10",style="solid"];
  Node2 [label="D:/Users/Ethan/Desktop\l/Working/2_Projects/!saddleback\l_CS/cs1c/ASS_3_EmployeeTracker\l/Date/DateAccessors.cpp",height=0.2,width=0.4,color="black", fillcolor="white", style="filled",URL="$_date_accessors_8cpp.html"];
  Node1 -> Node3 [dir="back",color="midnightblue",fontsize="10",style="solid"];
  Node3 [label="D:/Users/Ethan/Desktop\l/Working/2_Projects/!saddleback\l_CS/cs1c/ASS_3_EmployeeTracker\l/Date/DateConstDest.cpp",height=0.2,width=0.4,color="black", fillcolor="white", style="filled",URL="$_date_const_dest_8cpp.html"];
  Node1 -> Node4 [dir="back",color="midnightblue",fontsize="10",style="solid"];
  Node4 [label="D:/Users/Ethan/Desktop\l/Working/2_Projects/!saddleback\l_CS/cs1c/ASS_3_EmployeeTracker\l/Date/DateMutators.cpp",height=0.2,width=0.4,color="black", fillcolor="white", style="filled",URL="$_date_mutators_8cpp.html"];
  Node1 -> Node5 [dir="back",color="midnightblue",fontsize="10",style="solid"];
  Node5 [label="D:/Users/Ethan/Desktop\l/Working/2_Projects/!saddleback\l_CS/cs1c/ASS_3_EmployeeTracker\l/Date/DateUtility.cpp",height=0.2,width=0.4,color="black", fillcolor="white", style="filled",URL="$_date_utility_8cpp.html"];
  Node1 -> Node6 [dir="back",color="midnightblue",fontsize="10",style="solid"];
  Node6 [label="D:/Users/Ethan/Desktop\l/Working/2_Projects/!saddleback\l_CS/cs1c/ASS_3_EmployeeTracker\l/EmployeeClasses/Employee.h",height=0.2,width=0.4,color="black", fillcolor="white", style="filled",URL="$_employee_8h.html"];
  Node6 -> Node7 [dir="back",color="midnightblue",fontsize="10",style="solid"];
  Node7 [label="D:/Users/Ethan/Desktop\l/Working/2_Projects/!saddleback\l_CS/cs1c/ASS_3_EmployeeTracker\l/EmployeeClasses/Architect.h",height=0.2,width=0.4,color="black", fillcolor="white", style="filled",URL="$_architect_8h.html"];
  Node7 -> Node8 [dir="back",color="midnightblue",fontsize="10",style="solid"];
  Node8 [label="D:/Users/Ethan/Desktop\l/Working/2_Projects/!saddleback\l_CS/cs1c/ASS_3_EmployeeTracker\l/EmployeeClasses/Architect.cpp",height=0.2,width=0.4,color="black", fillcolor="white", style="filled",URL="$_architect_8cpp.html"];
  Node6 -> Node9 [dir="back",color="midnightblue",fontsize="10",style="solid"];
  Node9 [label="D:/Users/Ethan/Desktop\l/Working/2_Projects/!saddleback\l_CS/cs1c/ASS_3_EmployeeTracker\l/EmployeeClasses/EmployeeAccess.cpp",height=0.2,width=0.4,color="black", fillcolor="white", style="filled",URL="$_employee_access_8cpp.html"];
  Node6 -> Node10 [dir="back",color="midnightblue",fontsize="10",style="solid"];
  Node10 [label="D:/Users/Ethan/Desktop\l/Working/2_Projects/!saddleback\l_CS/cs1c/ASS_3_EmployeeTracker\l/EmployeeClasses/EmployeeMutate.cpp",height=0.2,width=0.4,color="black", fillcolor="white", style="filled",URL="$_employee_mutate_8cpp.html"];
  Node6 -> Node11 [dir="back",color="midnightblue",fontsize="10",style="solid"];
  Node11 [label="D:/Users/Ethan/Desktop\l/Working/2_Projects/!saddleback\l_CS/cs1c/ASS_3_EmployeeTracker\l/EmployeeClasses/programmer.h",height=0.2,width=0.4,color="black", fillcolor="white", style="filled",URL="$programmer_8h.html"];
  Node11 -> Node12 [dir="back",color="midnightblue",fontsize="10",style="solid"];
  Node12 [label="D:/Users/Ethan/Desktop\l/Working/2_Projects/!saddleback\l_CS/cs1c/ASS_3_EmployeeTracker\l/EmployeeClasses/Programmer.cpp",height=0.2,width=0.4,color="black", fillcolor="white", style="filled",URL="$_programmer_8cpp.html"];
  Node6 -> Node13 [dir="back",color="midnightblue",fontsize="10",style="solid"];
  Node13 [label="D:/Users/Ethan/Desktop\l/Working/2_Projects/!saddleback\l_CS/cs1c/ASS_3_EmployeeTracker\l/header.h",height=0.2,width=0.4,color="black", fillcolor="white", style="filled",URL="$header_8h.html"];
  Node13 -> Node14 [dir="back",color="midnightblue",fontsize="10",style="solid"];
  Node14 [label="D:/Users/Ethan/Desktop\l/Working/2_Projects/!saddleback\l_CS/cs1c/ASS_3_EmployeeTracker\l/GetEmployees.cpp",height=0.2,width=0.4,color="black", fillcolor="white", style="filled",URL="$_get_employees_8cpp.html"];
  Node13 -> Node15 [dir="back",color="midnightblue",fontsize="10",style="solid"];
  Node15 [label="D:/Users/Ethan/Desktop\l/Working/2_Projects/!saddleback\l_CS/cs1c/ASS_3_EmployeeTracker\l/main.cpp",height=0.2,width=0.4,color="black", fillcolor="white", style="filled",URL="$main_8cpp.html"];
  Node13 -> Node16 [dir="back",color="midnightblue",fontsize="10",style="solid"];
  Node16 [label="D:/Users/Ethan/Desktop\l/Working/2_Projects/!saddleback\l_CS/cs1c/ASS_3_EmployeeTracker\l/PrintHeaderOstream.cpp",height=0.2,width=0.4,color="black", fillcolor="white", style="filled",URL="$_print_header_ostream_8cpp.html"];
  Node1 -> Node13 [dir="back",color="midnightblue",fontsize="10",style="solid"];
}
