digraph "Architect"
{
  edge [fontname="Helvetica",fontsize="10",labelfontname="Helvetica",labelfontsize="10"];
  node [fontname="Helvetica",fontsize="10",shape=record];
  Node1 [label="{Architect\n|- departmentNum\l- supervisorName\l- percentRaise\l- yearsExp\l|+ Architect()\l+ ~Architect()\l+ Architect()\l+ SetDepartment()\l+ SetSupervisor()\l+ SetPercentRaise()\l+ SetYearsExp()\l+ GetDepartment()\l+ GetSupervisor()\l+ GetPercentRaise()\l+ GetYearsExp()\l+ Print()\l}",height=0.2,width=0.4,color="black", fillcolor="grey75", style="filled", fontcolor="black"];
  Node2 -> Node1 [dir="back",color="midnightblue",fontsize="10",style="solid",arrowtail="onormal"];
  Node2 [label="{Employee\n|- empName\l- empID\l- phoneNum\l- empAge\l- empGender\l- jobTitle\l- salary\l- hireDate\l|+ Employee()\l+ ~Employee()\l+ Employee()\l+ SetName()\l+ SetID()\l+ SetPhone()\l+ SetAge()\l+ SetGender()\l+ SetJob()\l+ SetSalary()\land 11 more...\l}",height=0.2,width=0.4,color="black", fillcolor="white", style="filled",URL="$class_employee.html"];
}
