digraph "D:/Users/Ethan/Desktop/Working/2_Projects/!saddleback_CS/cs1c/ASS_3_EmployeeTracker/main.cpp"
{
  edge [fontname="Helvetica",fontsize="10",labelfontname="Helvetica",labelfontsize="10"];
  node [fontname="Helvetica",fontsize="10",shape=record];
  Node1 [label="D:/Users/Ethan/Desktop\l/Working/2_Projects/!saddleback\l_CS/cs1c/ASS_3_EmployeeTracker\l/main.cpp",height=0.2,width=0.4,color="black", fillcolor="grey75", style="filled", fontcolor="black"];
  Node1 -> Node2 [color="midnightblue",fontsize="10",style="solid"];
  Node2 [label="header.h",height=0.2,width=0.4,color="black", fillcolor="white", style="filled",URL="$header_8h.html"];
  Node2 -> Node3 [color="midnightblue",fontsize="10",style="solid"];
  Node3 [label="Date\\Date.h",height=0.2,width=0.4,color="black", fillcolor="white", style="filled",URL="$_date_8h.html"];
  Node3 -> Node4 [color="midnightblue",fontsize="10",style="solid"];
  Node4 [label="string",height=0.2,width=0.4,color="grey75", fillcolor="white", style="filled"];
  Node3 -> Node5 [color="midnightblue",fontsize="10",style="solid"];
  Node5 [label="ctime",height=0.2,width=0.4,color="grey75", fillcolor="white", style="filled"];
  Node3 -> Node6 [color="midnightblue",fontsize="10",style="solid"];
  Node6 [label="sstream",height=0.2,width=0.4,color="grey75", fillcolor="white", style="filled"];
  Node3 -> Node7 [color="midnightblue",fontsize="10",style="solid"];
  Node7 [label="iostream",height=0.2,width=0.4,color="grey75", fillcolor="white", style="filled"];
  Node3 -> Node8 [color="midnightblue",fontsize="10",style="solid"];
  Node8 [label="stdlib.h",height=0.2,width=0.4,color="grey75", fillcolor="white", style="filled"];
  Node2 -> Node9 [color="midnightblue",fontsize="10",style="solid"];
  Node9 [label="EmployeeClasses\\Employee.h",height=0.2,width=0.4,color="black", fillcolor="white", style="filled",URL="$_employee_8h.html"];
  Node9 -> Node10 [color="midnightblue",fontsize="10",style="solid"];
  Node10 [label="string.h",height=0.2,width=0.4,color="grey75", fillcolor="white", style="filled"];
  Node9 -> Node6 [color="midnightblue",fontsize="10",style="solid"];
  Node9 -> Node3 [color="midnightblue",fontsize="10",style="solid"];
  Node2 -> Node7 [color="midnightblue",fontsize="10",style="solid"];
  Node2 -> Node11 [color="midnightblue",fontsize="10",style="solid"];
  Node11 [label="iomanip",height=0.2,width=0.4,color="grey75", fillcolor="white", style="filled"];
  Node2 -> Node12 [color="midnightblue",fontsize="10",style="solid"];
  Node12 [label="fstream",height=0.2,width=0.4,color="grey75", fillcolor="white", style="filled"];
}
